PRIMENUMS/run.log
LXT2 info: dumpfile dump.lx2 opened for output.
Current Number:    1, Prime? 0, Clocks:           4, Primes:   0

Current Number:    2, Prime? 1, Clocks:           8, Primes:   1

Current Number:    3, Prime? 1, Clocks:          12, Primes:   2

Current Number:    5, Prime? 1, Clocks:          16, Primes:   3

Current Number:    7, Prime? 1, Clocks:          20, Primes:   4

Current Number:    9, Prime? 0, Clocks:          24, Primes:   4

Current Number:   11, Prime? 1, Clocks:          28, Primes:   5

Current Number:   13, Prime? 1, Clocks:          32, Primes:   6

Current Number:   15, Prime? 0, Clocks:          36, Primes:   6

Current Number:   17, Prime? 1, Clocks:          40, Primes:   7

Current Number:   19, Prime? 1, Clocks:          44, Primes:   8

Current Number:   21, Prime? 0, Clocks:          48, Primes:   8

Current Number:   23, Prime? 1, Clocks:          52, Primes:   9

Current Number:   25, Prime? 0, Clocks:          56, Primes:   9

Current Number:   27, Prime? 0, Clocks:          60, Primes:   9

Current Number:   29, Prime? 1, Clocks:          64, Primes:  10

Current Number:   31, Prime? 1, Clocks:          68, Primes:  11

Current Number:   33, Prime? 0, Clocks:          72, Primes:  11

Current Number:   35, Prime? 0, Clocks:          76, Primes:  11

Current Number:   37, Prime? 1, Clocks:          80, Primes:  12

Current Number:   39, Prime? 0, Clocks:          84, Primes:  12

Current Number:   41, Prime? 1, Clocks:          88, Primes:  13

Current Number:   43, Prime? 1, Clocks:          92, Primes:  14

Current Number:   45, Prime? 0, Clocks:          96, Primes:  14

Current Number:   47, Prime? 1, Clocks:         100, Primes:  15

Current Number:   49, Prime? 0, Clocks:         104, Primes:  15

Current Number:   51, Prime? 0, Clocks:         108, Primes:  15

Current Number:   53, Prime? 1, Clocks:         112, Primes:  16

Current Number:   55, Prime? 0, Clocks:         116, Primes:  16

Current Number:   57, Prime? 0, Clocks:         120, Primes:  16

Current Number:   59, Prime? 1, Clocks:         124, Primes:  17

Current Number:   61, Prime? 1, Clocks:         128, Primes:  18

Current Number:   63, Prime? 0, Clocks:         132, Primes:  18

Current Number:   65, Prime? 0, Clocks:         136, Primes:  18

Current Number:   67, Prime? 1, Clocks:         140, Primes:  19

Current Number:   69, Prime? 0, Clocks:         144, Primes:  19

Current Number:   71, Prime? 1, Clocks:         148, Primes:  20

Current Number:   73, Prime? 1, Clocks:         152, Primes:  21

Current Number:   75, Prime? 0, Clocks:         156, Primes:  21

Current Number:   77, Prime? 0, Clocks:         160, Primes:  21

Current Number:   79, Prime? 1, Clocks:         164, Primes:  22

Current Number:   81, Prime? 0, Clocks:         168, Primes:  22

Current Number:   83, Prime? 1, Clocks:         172, Primes:  23

Current Number:   85, Prime? 0, Clocks:         176, Primes:  23

Current Number:   87, Prime? 0, Clocks:         180, Primes:  23

Current Number:   89, Prime? 1, Clocks:         184, Primes:  24

Current Number:   91, Prime? 0, Clocks:         188, Primes:  24

Current Number:   93, Prime? 0, Clocks:         192, Primes:  24

Current Number:   95, Prime? 0, Clocks:         196, Primes:  24

Current Number:   97, Prime? 1, Clocks:         200, Primes:  25

Current Number:   99, Prime? 0, Clocks:         204, Primes:  25

Current Number:  101, Prime? 1, Clocks:         208, Primes:  26

Current Number:  103, Prime? 1, Clocks:         212, Primes:  27

Current Number:  105, Prime? 0, Clocks:         216, Primes:  27

Current Number:  107, Prime? 1, Clocks:         220, Primes:  28

Current Number:  109, Prime? 1, Clocks:         224, Primes:  29

Current Number:  111, Prime? 0, Clocks:         228, Primes:  29

Current Number:  113, Prime? 1, Clocks:         232, Primes:  30

Current Number:  115, Prime? 0, Clocks:         236, Primes:  30

Current Number:  117, Prime? 0, Clocks:         240, Primes:  30

Current Number:  119, Prime? 0, Clocks:         244, Primes:  30

Current Number:  121, Prime? 0, Clocks:         248, Primes:  30

Current Number:  123, Prime? 0, Clocks:         252, Primes:  30

Current Number:  125, Prime? 0, Clocks:         256, Primes:  30

Current Number:  127, Prime? 1, Clocks:         260, Primes:  31

Current Number:  129, Prime? 0, Clocks:         264, Primes:  31

Current Number:  131, Prime? 1, Clocks:         268, Primes:  32

Current Number:  133, Prime? 0, Clocks:         272, Primes:  32

Current Number:  135, Prime? 0, Clocks:         276, Primes:  32

Current Number:  137, Prime? 1, Clocks:         280, Primes:  33

Current Number:  139, Prime? 1, Clocks:         284, Primes:  34

Current Number:  141, Prime? 0, Clocks:         288, Primes:  34

Current Number:  143, Prime? 0, Clocks:         292, Primes:  34

Current Number:  145, Prime? 0, Clocks:         296, Primes:  34

Current Number:  147, Prime? 0, Clocks:         300, Primes:  34

Current Number:  149, Prime? 1, Clocks:         304, Primes:  35

Current Number:  151, Prime? 1, Clocks:         308, Primes:  36

Current Number:  153, Prime? 0, Clocks:         312, Primes:  36

Current Number:  155, Prime? 0, Clocks:         316, Primes:  36

Current Number:  157, Prime? 1, Clocks:         320, Primes:  37

Current Number:  159, Prime? 0, Clocks:         324, Primes:  37

Current Number:  161, Prime? 0, Clocks:         328, Primes:  37

Current Number:  163, Prime? 1, Clocks:         332, Primes:  38

Current Number:  165, Prime? 0, Clocks:         336, Primes:  38

Current Number:  167, Prime? 1, Clocks:         340, Primes:  39

Current Number:  169, Prime? 0, Clocks:         344, Primes:  39

Current Number:  171, Prime? 0, Clocks:         348, Primes:  39

Current Number:  173, Prime? 1, Clocks:         352, Primes:  40

Current Number:  175, Prime? 0, Clocks:         356, Primes:  40

Current Number:  177, Prime? 0, Clocks:         360, Primes:  40

Current Number:  179, Prime? 1, Clocks:         364, Primes:  41

Current Number:  181, Prime? 1, Clocks:         368, Primes:  42

Current Number:  183, Prime? 0, Clocks:         372, Primes:  42

Current Number:  185, Prime? 0, Clocks:         376, Primes:  42

Current Number:  187, Prime? 0, Clocks:         380, Primes:  42

Current Number:  189, Prime? 0, Clocks:         384, Primes:  42

Current Number:  191, Prime? 1, Clocks:         388, Primes:  43

Current Number:  193, Prime? 1, Clocks:         392, Primes:  44

Current Number:  195, Prime? 0, Clocks:         396, Primes:  44

Current Number:  197, Prime? 1, Clocks:         400, Primes:  45

Current Number:  199, Prime? 1, Clocks:         404, Primes:  46

Current Number:  201, Prime? 0, Clocks:         408, Primes:  46

Current Number:  203, Prime? 0, Clocks:         412, Primes:  46

Current Number:  205, Prime? 0, Clocks:         416, Primes:  46

Current Number:  207, Prime? 0, Clocks:         420, Primes:  46

Current Number:  209, Prime? 0, Clocks:         424, Primes:  46

Current Number:  211, Prime? 1, Clocks:         428, Primes:  47

Current Number:  213, Prime? 0, Clocks:         432, Primes:  47

Current Number:  215, Prime? 0, Clocks:         436, Primes:  47

Current Number:  217, Prime? 0, Clocks:         440, Primes:  47

Current Number:  219, Prime? 0, Clocks:         444, Primes:  47

Current Number:  221, Prime? 0, Clocks:         448, Primes:  47

Current Number:  223, Prime? 1, Clocks:         452, Primes:  48

Current Number:  225, Prime? 0, Clocks:         456, Primes:  48

Current Number:  227, Prime? 1, Clocks:         460, Primes:  49

Current Number:  229, Prime? 1, Clocks:         464, Primes:  50

Current Number:  231, Prime? 0, Clocks:         468, Primes:  50

Current Number:  233, Prime? 1, Clocks:         472, Primes:  51

Current Number:  235, Prime? 0, Clocks:         476, Primes:  51

Current Number:  237, Prime? 0, Clocks:         480, Primes:  51

Current Number:  239, Prime? 1, Clocks:         484, Primes:  52

Current Number:  241, Prime? 1, Clocks:         488, Primes:  53

Current Number:  243, Prime? 0, Clocks:         492, Primes:  53

Current Number:  245, Prime? 0, Clocks:         496, Primes:  53

Current Number:  247, Prime? 0, Clocks:         500, Primes:  53

Current Number:  249, Prime? 0, Clocks:         504, Primes:  53

Current Number:  251, Prime? 1, Clocks:         508, Primes:  54

Current Number:  253, Prime? 0, Clocks:         512, Primes:  54

Current Number:  255, Prime? 0, Clocks:         516, Primes:  54

Current Number:  257, Prime? 1, Clocks:         520, Primes:  55

Current Number:  259, Prime? 0, Clocks:         524, Primes:  55

Current Number:  261, Prime? 0, Clocks:         528, Primes:  55

Current Number:  263, Prime? 1, Clocks:         532, Primes:  56

Current Number:  265, Prime? 0, Clocks:         536, Primes:  56

Current Number:  267, Prime? 0, Clocks:         540, Primes:  56

Current Number:  269, Prime? 1, Clocks:         544, Primes:  57

Current Number:  271, Prime? 1, Clocks:         548, Primes:  58

Current Number:  273, Prime? 0, Clocks:         552, Primes:  58

Current Number:  275, Prime? 0, Clocks:         556, Primes:  58

Current Number:  277, Prime? 1, Clocks:         560, Primes:  59

Current Number:  279, Prime? 0, Clocks:         564, Primes:  59

Current Number:  281, Prime? 1, Clocks:         568, Primes:  60

Current Number:  283, Prime? 1, Clocks:         572, Primes:  61

Current Number:  285, Prime? 0, Clocks:         576, Primes:  61

Current Number:  287, Prime? 0, Clocks:         580, Primes:  61

Current Number:  289, Prime? 0, Clocks:         584, Primes:  61

Current Number:  291, Prime? 0, Clocks:         588, Primes:  61

Current Number:  293, Prime? 1, Clocks:         592, Primes:  62

Current Number:  295, Prime? 0, Clocks:         596, Primes:  62

Current Number:  297, Prime? 0, Clocks:         600, Primes:  62

Current Number:  299, Prime? 0, Clocks:         604, Primes:  62

Current Number:  301, Prime? 0, Clocks:         608, Primes:  62

Current Number:  303, Prime? 0, Clocks:         612, Primes:  62

Current Number:  305, Prime? 0, Clocks:         616, Primes:  62

Current Number:  307, Prime? 1, Clocks:         620, Primes:  63

Current Number:  309, Prime? 0, Clocks:         624, Primes:  63

Current Number:  311, Prime? 1, Clocks:         628, Primes:  64

Current Number:  313, Prime? 1, Clocks:         632, Primes:  65

Current Number:  315, Prime? 0, Clocks:         636, Primes:  65

Current Number:  317, Prime? 1, Clocks:         640, Primes:  66

Current Number:  319, Prime? 0, Clocks:         644, Primes:  66

Current Number:  321, Prime? 0, Clocks:         648, Primes:  66

Current Number:  323, Prime? 0, Clocks:         652, Primes:  66

Current Number:  325, Prime? 0, Clocks:         656, Primes:  66

Current Number:  327, Prime? 0, Clocks:         660, Primes:  66

Current Number:  329, Prime? 0, Clocks:         664, Primes:  66

Current Number:  331, Prime? 1, Clocks:         668, Primes:  67

Current Number:  333, Prime? 0, Clocks:         672, Primes:  67

Current Number:  335, Prime? 0, Clocks:         676, Primes:  67

Current Number:  337, Prime? 1, Clocks:         680, Primes:  68

Current Number:  339, Prime? 0, Clocks:         684, Primes:  68

Current Number:  341, Prime? 0, Clocks:         688, Primes:  68

Current Number:  343, Prime? 0, Clocks:         692, Primes:  68

Current Number:  345, Prime? 0, Clocks:         696, Primes:  68

Current Number:  347, Prime? 1, Clocks:         700, Primes:  69

Current Number:  349, Prime? 1, Clocks:         704, Primes:  70

Current Number:  351, Prime? 0, Clocks:         708, Primes:  70

Current Number:  353, Prime? 1, Clocks:         712, Primes:  71

Current Number:  355, Prime? 0, Clocks:         716, Primes:  71

Current Number:  357, Prime? 0, Clocks:         720, Primes:  71

Current Number:  359, Prime? 1, Clocks:         724, Primes:  72

Current Number:  361, Prime? 0, Clocks:         728, Primes:  72

Current Number:  363, Prime? 0, Clocks:         732, Primes:  72

Current Number:  365, Prime? 0, Clocks:         736, Primes:  72

Current Number:  367, Prime? 1, Clocks:         740, Primes:  73

Current Number:  369, Prime? 0, Clocks:         744, Primes:  73

Current Number:  371, Prime? 0, Clocks:         748, Primes:  73

Current Number:  373, Prime? 1, Clocks:         752, Primes:  74

Current Number:  375, Prime? 0, Clocks:         756, Primes:  74

Current Number:  377, Prime? 0, Clocks:         760, Primes:  74

Current Number:  379, Prime? 1, Clocks:         764, Primes:  75

Current Number:  381, Prime? 0, Clocks:         768, Primes:  75

Current Number:  383, Prime? 1, Clocks:         772, Primes:  76

Current Number:  385, Prime? 0, Clocks:         776, Primes:  76

Current Number:  387, Prime? 0, Clocks:         780, Primes:  76

Current Number:  389, Prime? 1, Clocks:         784, Primes:  77

Current Number:  391, Prime? 0, Clocks:         788, Primes:  77

Current Number:  393, Prime? 0, Clocks:         792, Primes:  77

Current Number:  395, Prime? 0, Clocks:         796, Primes:  77

Current Number:  397, Prime? 1, Clocks:         800, Primes:  78

Current Number:  399, Prime? 0, Clocks:         804, Primes:  78

Current Number:  401, Prime? 1, Clocks:         808, Primes:  79

Current Number:  403, Prime? 0, Clocks:         812, Primes:  79

Current Number:  405, Prime? 0, Clocks:         816, Primes:  79

Current Number:  407, Prime? 0, Clocks:         820, Primes:  79

Current Number:  409, Prime? 1, Clocks:         824, Primes:  80

Current Number:  411, Prime? 0, Clocks:         828, Primes:  80

Current Number:  413, Prime? 0, Clocks:         832, Primes:  80

Current Number:  415, Prime? 0, Clocks:         836, Primes:  80

Current Number:  417, Prime? 0, Clocks:         840, Primes:  80

Current Number:  419, Prime? 1, Clocks:         844, Primes:  81

Current Number:  421, Prime? 1, Clocks:         848, Primes:  82

Current Number:  423, Prime? 0, Clocks:         852, Primes:  82

Current Number:  425, Prime? 0, Clocks:         856, Primes:  82

Current Number:  427, Prime? 0, Clocks:         860, Primes:  82

Current Number:  429, Prime? 0, Clocks:         864, Primes:  82

Current Number:  431, Prime? 1, Clocks:         868, Primes:  83

Current Number:  433, Prime? 1, Clocks:         872, Primes:  84

Current Number:  435, Prime? 0, Clocks:         876, Primes:  84

Current Number:  437, Prime? 0, Clocks:         880, Primes:  84

Current Number:  439, Prime? 1, Clocks:         884, Primes:  85

Current Number:  441, Prime? 0, Clocks:         888, Primes:  85

Current Number:  443, Prime? 1, Clocks:         892, Primes:  86

Current Number:  445, Prime? 0, Clocks:         896, Primes:  86

Current Number:  447, Prime? 0, Clocks:         900, Primes:  86

Current Number:  449, Prime? 1, Clocks:         904, Primes:  87

Current Number:  451, Prime? 0, Clocks:         908, Primes:  87

Current Number:  453, Prime? 0, Clocks:         912, Primes:  87

Current Number:  455, Prime? 0, Clocks:         916, Primes:  87

Current Number:  457, Prime? 1, Clocks:         920, Primes:  88

Current Number:  459, Prime? 0, Clocks:         924, Primes:  88

Current Number:  461, Prime? 1, Clocks:         928, Primes:  89

Current Number:  463, Prime? 1, Clocks:         932, Primes:  90

Current Number:  465, Prime? 0, Clocks:         936, Primes:  90

Current Number:  467, Prime? 1, Clocks:         940, Primes:  91

Current Number:  469, Prime? 0, Clocks:         944, Primes:  91

Current Number:  471, Prime? 0, Clocks:         948, Primes:  91

Current Number:  473, Prime? 0, Clocks:         952, Primes:  91

Current Number:  475, Prime? 0, Clocks:         956, Primes:  91

Current Number:  477, Prime? 0, Clocks:         960, Primes:  91

Current Number:  479, Prime? 1, Clocks:         964, Primes:  92

Current Number:  481, Prime? 0, Clocks:         968, Primes:  92

Current Number:  483, Prime? 0, Clocks:         972, Primes:  92

Current Number:  485, Prime? 0, Clocks:         976, Primes:  92

Current Number:  487, Prime? 1, Clocks:         980, Primes:  93

Current Number:  489, Prime? 0, Clocks:         984, Primes:  93

Current Number:  491, Prime? 1, Clocks:         988, Primes:  94

Current Number:  493, Prime? 0, Clocks:         992, Primes:  94

Current Number:  495, Prime? 0, Clocks:         996, Primes:  94

Current Number:  497, Prime? 0, Clocks:        1000, Primes:  94

Current Number:  499, Prime? 1, Clocks:        1004, Primes:  95

Current Number:  501, Prime? 0, Clocks:        1008, Primes:  95

Current Number:  503, Prime? 1, Clocks:        1012, Primes:  96

Current Number:  505, Prime? 0, Clocks:        1016, Primes:  96

Correct Number of Primes found.

primenums_tb.v:213: $finish called at 100000 (1ns)
